Cointegration · Trading.jl
…
Portfolio -- positions: 0.0, cash: 910454.3372999966, tot: 910454.3372999966

Current positions:
┌────────┬──────────┬───────┐
│ Ticker │ Quantity │ Value │
├────────┼──────────┼───────┤
│   AAPL │      0.0 │   0.0 │
│   MSFT │      0.0 │   0.0 │
└────────┴──────────┴───────┘

Strategies:

Trades:
┌─────────────────────┬────────┬──────┬──────────┬───────────┬───────────┐
│                Time │ Ticker │ Side │ Quantity │ Avg Price │ Tot Price │
├─────────────────────┼────────┼──────┼──────────┼───────────┼───────────┤
│ 2023-03-01T14:52:00 │   AAPL │  buy │   5534.0 │     147.3 │ 8.15158e5 │
│ 2023-03-01T14:52:00 │   MSFT │ sell │   3992.0 │    250.49 │ 9.99956e5 │
│ 2023-03-01T15:30:00 │   AAPL │ sell │  11114.0 │    146.83 │ 1.63187e6 │
│ 2023-03-01T15:31:00 │   MSFT │  buy │   7984.0 │    249.45 │ 1.99161e6 │
│ 2023-03-01T15:53:00 │   AAPL │  buy │   5580.0 │     146.9 │  819702.0 │
│ 2023-03-01T15:53:00 │   MSFT │ sell │   3992.0 │    249.49 │ 9.95964e5 │
│ 2023-03-01T16:32:00 │   AAPL │ sell │   5601.0 │    145.69 │  8.1601e5 │
│ 2023-03-01T16:33:00 │   MSFT │  buy │   4047.0 │     247.3 │ 1.00082e6 │
│ 2023-03-01T16:45:00 │   MSFT │ sell │   4047.0 │     249.0 │  1.0077e6 │
│ 2023-03-01T16:46:00 │   AAPL │  buy │   5601.0 │     146.6 │ 8.21107e5 │
│ 2023-03-01T16:59:00 │   AAPL │ sell │   5585.0 │    146.35 │ 8.17365e5 │
│ 2023-03-01T17:00:00 │   MSFT │  buy │   4035.0 │    248.35 │ 1.00209e6 │
│ 2023-03-01T17:28:00 │   AAPL │  buy │   5585.0 │    146.02 │ 8.15522e5 │
│ 2023-03-01T17:28:00 │   MSFT │ sell │   4035.0 │    247.47 │ 9.98541e5 │
│ 2023-03-01T18:04:00 │   AAPL │ sell │   5575.0 │    146.35 │ 8.15901e5 │
│ 2023-03-01T18:05:00 │   MSFT │  buy │   4034.0 │    247.97 │ 1.00031e6 │
│          ⋮          │   ⋮    │  ⋮   │    ⋮     │     ⋮     │     ⋮     │
└─────────────────────┴────────┴──────┴──────────┴───────────┴───────────┘
                                                          538 rows omitted
…
